{
	"Zsq6KIAWaeBd4iSC": {
		"changes": [
			{"formula":"2","operator":"add","target":"skill","subTarget":"skill.int","modifier":"competence","priority":0,"value":0}
		],
		"contextNotes": [
			{"text":"+[[5]] competence bonus against steal and sunder attempts targeting his headgear when attached to the outside of a hat","target":"misc","subTarget":"cmd"}
		]
	},
	"diAvTG5m3vb6iss6" : {
		"changes": [
			{"formula":"5","operator":"add","target":"skill","subTarget":"skill.per","modifier":"competence","priority":0,"value":0}
		],
		"contextNotes": [
			{"text":"+[[5]] competence bonus when tracking","target":"skill","subTarget":"skill.sur"}
		]
	},
	"WyiHHXVIkYx6z7Jk" : {
		"changes": [
			{"formula":"2","operator":"add","target":"ability","subTarget":"cha","modifier":"enh","priority":0,"value":0},
			{"formula":"2","operator":"add","target":"ability","subTarget":"int","modifier":"enh","priority":0,"value":0},
			{"formula":"2","operator":"add","target":"ability","subTarget":"wis","modifier":"enh","priority":0,"value":0}
		],
		"contextNotes": [
		]
	},
	"zogwBaqhB02IT0j7" : {
		"changes": [
			{"formula":"4","operator":"add","target":"ability","subTarget":"cha","modifier":"enh","priority":0,"value":0},
			{"formula":"4","operator":"add","target":"ability","subTarget":"int","modifier":"enh","priority":0,"value":0},
			{"formula":"4","operator":"add","target":"ability","subTarget":"wis","modifier":"enh","priority":0,"value":0}
		],
		"contextNotes": [
		]
	},
	"bZdHmnt0UkEnSWVE" : {
		"changes": [
			{"formula":"6","operator":"add","target":"ability","subTarget":"cha","modifier":"enh","priority":0,"value":0},
			{"formula":"6","operator":"add","target":"ability","subTarget":"int","modifier":"enh","priority":0,"value":0},
			{"formula":"6","operator":"add","target":"ability","subTarget":"wis","modifier":"enh","priority":0,"value":0}
		],
		"contextNotes": [
		]
	}
}